[
  {
    "listing": "/posts.html",
    "items": [
      "/post/2024-10-15_mastodon-author-attribution-quarto/index.html",
      "/post/2024-09-09-algorithms-for-weighted-sampling-without-replacement-part-1/index.html",
      "/post/2024-08-04-tikzDevice-usage-quarto/index.html",
      "/post/2024-05-29-dqrng-v0-4-1/index.html",
      "/post/2024-05-15-dqrng-v0-4-0/index.html",
      "/post/2024-04-23-upcoming-changes-dqrng/index.html",
      "/post/2024-01-06-migrating-to-quarto/index.html",
      "/post/2023-11-29-bug-fixes-for-dqrng-and-tikzdevice/index.html",
      "/post/2023-10-22-algorithms-for-unweighted-sampling-without-replacement/index.html",
      "/post/2023-09-24-using-dqrng-as-user-supplied-rng/index.html",
      "/post/2023-09-10-roulette-wheel-selection-for-dqrng-part-2/index.html",
      "/post/2023-09-09-choosing-a-new-default-rng-for-dqrng/index.html",
      "/post/2023-08-30-dqrng-v0-3-1-and-tikzdevice-v0-12-5/index.html",
      "/post/2023-05-08-swephr-v0-3-1/index.html",
      "/post/2023-02-10-share-on-mastodon-using-tootpick/index.html",
      "/post/2023-02-10-tikzdevice-v0-12-4/index.html",
      "/post/2022-12-29-roulette-wheel-selection-for-dqrng/index.html",
      "/post/2021-05-01-dqrng-v0-3-0/index.html",
      "/post/2019-08-28-swephr-v0-3-0/index.html",
      "/post/2019-08-08-tikzdevice-v0-12-3/index.html",
      "/post/2019-08-02-xy-problems/index.html",
      "/post/2019-07-12-numerical-integration-in-rcpp-part-2/index.html",
      "/post/2019-07-08-swephr-v0-2-1/index.html",
      "/post/2019-07-05-swephr-v0-2-0/index.html",
      "/post/2019-07-03-numerical-integration-over-an-infinite-interval-in-rcpp/index.html",
      "/post/2019-06-28-rcpparrayfire-v0-1-0-sparse-matrices-and-support-for-macos/index.html",
      "/post/2019-06-05-using-qpdfview-with-auctex/index.html",
      "/post/2019-05-17-dqrng-v0-2-1/index.html"
    ]
  },
  {
    "listing": "/projects.html",
    "items": [
      "/project/fpl/index.html",
      "/project/rcpparrayfire/index.html",
      "/project/dqrng/index.html",
      "/project/swephr/index.html",
      "/project/tikzdevice/index.html"
    ]
  }
]